<svg width="100pt" height="100pt" version="1.1" viewBox="0 0 100 100" xmlns="http://www.w3.org/2000/svg">
 <g>
  <path d="m54.652 51.965c-0.003906 0.23438-0.015625 0.46875-0.035156 0.70312-0.039063 0.41797 0.0625-0.39453 0 0.027343-0.019532 0.12109-0.042969 0.24609-0.066407 0.36719-0.10547 0.54688-0.27344 1.082-0.46875 1.6016-0.027343 0.070313-0.19922 0.48047-0.027343 0.078126-0.050782 0.12109-0.10938 0.24219-0.16406 0.35937-0.11328 0.23828-0.23828 0.47266-0.37109 0.70313-0.12891 0.23047-0.27344 0.45312-0.42188 0.66797-0.074218 0.10938-0.14844 0.21484-0.22656 0.32031 0.26172-0.35938-0.082032 0.09375-0.13672 0.16016-0.16406 0.19531-0.33984 0.375-0.51953 0.55469-0.089844 0.089844-0.67969 0.57813-0.30859 0.29297-0.1875 0.14453-0.39062 0.27344-0.59766 0.39453-0.10156 0.058594-0.20312 0.11328-0.30859 0.16406-0.26953 0.13672 0.33594-0.11719-0.12109 0.050781-0.21484 0.078125-0.43359 0.12891-0.65625 0.17188 0.48828-0.09375 0.12109-0.015625 0.003906-0.007812-0.11328 0.007812-0.22656 0.007812-0.34375 0.003906-0.11328 0-0.22656-0.011719-0.33984-0.023437 0.5 0.050781 0.11719 0.007812 0.007812-0.015626-0.10938-0.023437-0.21875-0.058593-0.32812-0.089843-0.10156-0.03125-0.58203-0.24219-0.125-0.035157-0.21484-0.097656-0.41797-0.21484-0.61719-0.33594-0.10156-0.0625-0.19922-0.13281-0.29688-0.20312-0.33984-0.24219 0.28516 0.23438-0.039063-0.03125-0.42188-0.34766-0.79297-0.75781-1.1328-1.1836 0.26953 0.33594 0-0.011718-0.042969-0.070312-0.074219-0.10547-0.14844-0.21875-0.21875-0.32812-0.14453-0.22266-0.27734-0.44922-0.40234-0.68359-0.12891-0.23047-0.24219-0.47266-0.35547-0.71094-0.1875-0.40625 0.13281 0.33594-0.035157-0.078126-0.066406-0.16016-0.125-0.32812-0.17969-0.49219-0.16797-0.48047-0.28906-0.97656-0.38281-1.4766-0.015625-0.09375-0.070312-0.51562-0.007812-0.03125-0.015625-0.11719-0.023438-0.23828-0.03125-0.35547-0.023438-0.28906-0.019531-0.58203-0.003907-0.875 0.003907-0.082032 0.058594-0.53516-0.003906-0.078125 0.019532-0.13281 0.042969-0.26172 0.070313-0.39062 0.050781-0.25781 0.12891-0.50781 0.21094-0.75391 0.023438-0.074219 0.19141-0.48047 0.015625-0.074219 0.050781-0.11719 0.10938-0.23438 0.16797-0.34766 0.13281-0.26562 0.29297-0.51953 0.46484-0.76172 0.24609-0.35547-0.23047 0.27734 0.042968-0.058594 0.10547-0.13281 0.22266-0.25391 0.33984-0.375 0.089844-0.089844 0.17969-0.17969 0.27344-0.26562 0.066406-0.058594 0.50781-0.41016 0.14453-0.13672 0.23828-0.17969 0.49219-0.33594 0.75391-0.48047 0.11328-0.0625 0.22656-0.11719 0.34375-0.17188 0.17188-0.078124 0.15625-0.070312-0.054687 0.019532 0.082031-0.03125 0.16016-0.0625 0.24219-0.089844 0.28906-0.10156 0.58594-0.17578 0.88281-0.23438 0.082031-0.015625 0.52344-0.070313 0.070312-0.015625 0.17969-0.019531 0.35938-0.027344 0.53906-0.035156 0.13672-0.003906 0.27344 0 0.41016 0.003906 0.089844 0.003906 0.6875 0.066406 0.21484 0.003906 0.34766 0.046875 0.6875 0.13672 1.0234 0.23828 0.125 0.039062 0.24609 0.085937 0.36719 0.13281-0.42578-0.16406 0.09375 0.050781 0.17578 0.09375 0.26562 0.13281 0.51953 0.29297 0.76172 0.46484 0.35547 0.24609-0.27734-0.23047 0.058594 0.042968 0.13281 0.10547 0.25391 0.22266 0.375 0.33984 0.089843 0.089844 0.17969 0.17969 0.26562 0.27344 0.058594 0.066406 0.41016 0.50781 0.13672 0.14453 0.17969 0.23828 0.33594 0.49219 0.48047 0.75391 0.0625 0.11328 0.11719 0.22656 0.17188 0.34375 0.078125 0.17188 0.070313 0.15625-0.019531-0.054687 0.03125 0.082031 0.0625 0.16016 0.089844 0.24219 0.10156 0.28906 0.17578 0.58594 0.23437 0.88281 0.015626 0.085937 0.03125 0.17188 0.042969 0.26172-0.03125-0.23437-0.035156-0.25391-0.015625-0.054687 0.015625 0.17969 0.019532 0.36328 0.023438 0.54297 0.011718 0.92969 0.76953 1.7109 1.7109 1.7109 0.92578 0 1.7188-0.77734 1.7109-1.7109-0.027344-2.6836-1.3164-5-3.4336-6.5977-1.9961-1.5039-4.8398-1.8516-7.1836-1.0664-2.4727 0.82812-4.3438 2.7891-5.1641 5.2461-0.79688 2.3789-0.21094 4.9531 0.80469 7.1602 0.79297 1.7266 2.0625 3.2812 3.6602 4.3164 1.7539 1.1406 3.8789 1.2266 5.7617 0.38281 1.7031-0.76562 3.0273-2.293 3.9531-3.8789 0.97266-1.668 1.5859-3.6289 1.6016-5.5664 0.007812-0.92969-0.78516-1.7109-1.7109-1.7109-0.94141 0.007812-1.7031 0.78516-1.7109 1.7148z"/>
  <path d="m61.051 71.051v5.0898c0.57031-0.57031 1.1406-1.1406 1.7109-1.7109h-13.152-12.371c0.57031 0.57031 1.1406 1.1406 1.7109 1.7109v-2.9766-1.7422-0.35938c0-0.14062 0.003906-0.27734 0.011719-0.41797 0.007812-0.13281 0.023437-0.26953 0.039062-0.40234-0.050781 0.45312 0.007812 0.011718 0.023438-0.070313 0.042968-0.21484 0.10156-0.42578 0.16406-0.63281 0.039062-0.125 0.082031-0.24609 0.12891-0.36719 0.15234-0.41016-0.15234 0.33203 0.03125-0.066406 0.089844-0.19531 0.19531-0.37891 0.30469-0.5625 0.066406-0.10938 0.13672-0.21484 0.20703-0.32031 0.042969-0.066406 0.30859-0.40625 0.035156-0.0625 0.28906-0.36719 0.62891-0.69141 0.98828-0.98828-0.34766 0.28516 0.18359-0.11719 0.27734-0.17578 0.21484-0.14062 0.44141-0.25781 0.67188-0.37109 0.17188-0.078125 0.15625-0.074219-0.054687 0.015625 0.12109-0.050781 0.24219-0.09375 0.36328-0.13672 0.24609-0.085937 0.5-0.14844 0.75781-0.20703 0.085937-0.019531 0.17187-0.035156 0.26172-0.046875-0.44922 0.078125-0.007812 0.003906 0.078125-0.003906 0.19141-0.019532 0.38281-0.023438 0.57422-0.023438h1.4961c-0.40234-0.16797-0.80469-0.33203-1.207-0.5 1.5703 1.9609 3.1445 3.9219 4.7148 5.8828 0.53906 0.67188 1.8789 0.67578 2.418 0 1.5586-1.9609 3.1172-3.9219 4.6758-5.8828-0.40234 0.16797-0.80469 0.33203-1.207 0.5h1.5273c0.26953 0 0.53906 0.019532 0.80859 0.050782-0.45312-0.050782-0.011718 0.007812 0.070313 0.023437 0.12891 0.023437 0.25781 0.058594 0.38281 0.089844 0.25 0.066406 0.49609 0.15234 0.73828 0.25-0.41016-0.16016-0.011719 0.003906 0.0625 0.039062 0.11328 0.054688 0.22656 0.12109 0.33984 0.18359 0.22266 0.125 0.43359 0.26953 0.64063 0.42188-0.35156-0.25781-0.011719 0 0.050781 0.050781 0.097656 0.082031 0.1875 0.17188 0.28125 0.25781 0.18359 0.17578 0.35156 0.36719 0.51172 0.5625-0.27734-0.33594-0.007813-0.003906 0.035156 0.0625 0.074218 0.10547 0.14062 0.21484 0.20703 0.32031 0.13281 0.21875 0.25 0.44922 0.35938 0.67969-0.18359-0.39844-0.007812-0.007813 0.023438 0.070312 0.046874 0.12109 0.082031 0.24609 0.12109 0.37109 0.078125 0.25 0.12891 0.51172 0.17578 0.76953-0.078124-0.44922-0.003906-0.007812 0.003907 0.078125 0.003906 0.18359 0.007812 0.36328 0.007812 0.54688 0.007813 0.92969 0.76953 1.7109 1.7109 1.7109 0.92578 0 1.7188-0.77734 1.7109-1.7109-0.027344-2.6562-1.2773-5.043-3.3789-6.6445-0.93359-0.71094-2.0586-1.2031-3.207-1.4297-0.89844-0.17578-1.793-0.17187-2.7031-0.17187-0.58984 0-1.2812-0.015626-1.6914 0.5-0.054688 0.070312-0.10938 0.13672-0.16406 0.20703-0.33984 0.42578-0.67578 0.85156-1.0156 1.2734-0.9375 1.1797-1.875 2.3594-2.8125 3.5391-0.23047 0.28906-0.45703 0.57422-0.6875 0.86328h2.418c-1.4922-1.8594-2.9805-3.7188-4.4727-5.5781-0.42969-0.53906-0.96875-0.80469-1.6914-0.80469-0.74219 0-1.4922-0.03125-2.2305 0.066406-2.5977 0.34766-4.8555 1.7812-6.1992 4.0547-0.98047 1.6602-1.1055 3.4648-1.1055 5.332v3.8828c0 0.92969 0.77734 1.7109 1.7109 1.7109h13.152 12.371c0.92969 0 1.7109-0.77734 1.7109-1.7109v-5.0898c0-0.92969-0.77734-1.7109-1.7109-1.7109-0.9375 0-1.7148 0.77734-1.7148 1.7109z"/>
  <path d="m86.293 51.965c-0.003907 0.23438-0.015625 0.46875-0.035157 0.70312-0.039062 0.41797 0.0625-0.39453 0 0.027343-0.019531 0.12109-0.042968 0.24609-0.066406 0.36719-0.10547 0.54688-0.27344 1.082-0.46875 1.6016-0.027344 0.070313-0.19922 0.48047-0.027344 0.078126-0.050781 0.12109-0.10937 0.24219-0.16406 0.35937-0.11328 0.23828-0.23828 0.47266-0.37109 0.70313-0.12891 0.23047-0.27344 0.45312-0.42188 0.66797-0.074219 0.10938-0.14844 0.21484-0.22656 0.32031 0.26172-0.35938-0.082031 0.09375-0.13672 0.16016-0.16406 0.19531-0.33984 0.375-0.51953 0.55469-0.089844 0.089844-0.67969 0.57813-0.30859 0.29297-0.1875 0.14453-0.39062 0.27344-0.59766 0.39453-0.10156 0.058594-0.20312 0.11328-0.30859 0.16406-0.26953 0.13672 0.33594-0.11719-0.12109 0.050781-0.21484 0.078125-0.43359 0.12891-0.65625 0.17188 0.48828-0.09375 0.12109-0.015625 0.003907-0.007812-0.11328 0.007812-0.22656 0.007812-0.34375 0.003906-0.11328 0-0.22656-0.011719-0.33984-0.023437 0.5 0.050781 0.11719 0.007812 0.007812-0.015626-0.10938-0.023437-0.21875-0.058593-0.32812-0.089843-0.10156-0.03125-0.58203-0.24219-0.125-0.035157-0.21484-0.097656-0.41797-0.21484-0.61719-0.33594-0.10156-0.0625-0.19922-0.13281-0.29688-0.20312-0.33984-0.24219 0.28516 0.23438-0.039063-0.03125-0.42188-0.34766-0.79297-0.75781-1.1328-1.1836 0.26953 0.33594 0-0.011718-0.042969-0.070312-0.074219-0.10547-0.14844-0.21875-0.21875-0.32812-0.14453-0.22266-0.27734-0.44922-0.40234-0.68359-0.12891-0.23047-0.24219-0.47266-0.35547-0.71094-0.1875-0.40625 0.13281 0.33594-0.035156-0.078126-0.066406-0.16016-0.125-0.32812-0.17969-0.49219-0.16797-0.48047-0.28906-0.97656-0.38281-1.4766-0.015625-0.09375-0.070312-0.51562-0.007812-0.03125-0.015625-0.11719-0.023438-0.23828-0.03125-0.35547-0.023438-0.28906-0.019532-0.58203-0.003906-0.875 0.003906-0.082032 0.058593-0.53516-0.003907-0.078125 0.019531-0.13281 0.042969-0.26172 0.070313-0.39062 0.050781-0.25781 0.12891-0.50781 0.21094-0.75391 0.023438-0.074219 0.19141-0.48047 0.015625-0.074219 0.050782-0.11719 0.10938-0.23438 0.16406-0.34766 0.13281-0.26562 0.29297-0.51953 0.46484-0.76172 0.24609-0.35547-0.23047 0.27734 0.042969-0.058594 0.10547-0.13281 0.22266-0.25391 0.33984-0.375 0.085937-0.089844 0.17969-0.17969 0.27344-0.26562 0.066407-0.058594 0.50781-0.41016 0.14453-0.13672 0.23828-0.17969 0.49219-0.33594 0.75391-0.48047 0.11328-0.0625 0.22656-0.11719 0.34375-0.17188 0.17188-0.078124 0.15625-0.070312-0.054688 0.019532 0.082032-0.03125 0.16016-0.0625 0.24219-0.089844 0.28906-0.10156 0.58594-0.17578 0.88281-0.23438 0.082032-0.015625 0.52344-0.070313 0.070313-0.015625 0.17969-0.019531 0.35938-0.027344 0.53906-0.035156 0.13672-0.003906 0.27344 0 0.41016 0.003906 0.089844 0.003906 0.6875 0.066406 0.21484 0.003906 0.34766 0.046875 0.6875 0.13672 1.0234 0.23828 0.125 0.039062 0.24609 0.085937 0.36719 0.13281-0.42578-0.16406 0.09375 0.050781 0.17578 0.09375 0.26562 0.13281 0.51953 0.29297 0.76172 0.46484 0.35547 0.24609-0.27734-0.23047 0.058594 0.042968 0.13281 0.10547 0.25391 0.22266 0.375 0.33984 0.089844 0.089844 0.17969 0.17969 0.26562 0.27344 0.058594 0.066406 0.41016 0.50781 0.13672 0.14453 0.17969 0.23828 0.33594 0.49219 0.48047 0.75391 0.0625 0.11328 0.11719 0.22656 0.17188 0.34375 0.078125 0.17188 0.070312 0.15625-0.019532-0.054687 0.03125 0.082031 0.0625 0.16016 0.089844 0.24219 0.10156 0.28906 0.17578 0.58594 0.23438 0.88281 0.015625 0.085937 0.03125 0.17578 0.042969 0.26172-0.03125-0.23437-0.035156-0.25391-0.015625-0.054687 0.019531 0.17969 0.023437 0.36328 0.027344 0.54297 0.011719 0.92969 0.76953 1.7109 1.7109 1.7109 0.92578 0 1.7188-0.77734 1.7109-1.7109-0.027344-2.6836-1.3164-5-3.4336-6.5977-1.9961-1.5039-4.8398-1.8516-7.1836-1.0664-2.4727 0.82812-4.3438 2.7891-5.1641 5.2461-0.79688 2.3789-0.21094 4.9531 0.80469 7.1602 0.79297 1.7266 2.0625 3.2812 3.6602 4.3164 1.7539 1.1406 3.8789 1.2266 5.7617 0.38281 1.7031-0.76562 3.0273-2.293 3.9531-3.8789 0.97266-1.668 1.5859-3.6289 1.6016-5.5664 0.007812-0.92969-0.78516-1.7109-1.7109-1.7109-0.94141 0.007812-1.7031 0.78516-1.7109 1.7148z"/>
  <path d="m92.691 71.051v5.0898c0.57031-0.57031 1.1406-1.1406 1.7109-1.7109h-13.152-12.371c0.57031 0.57031 1.1406 1.1406 1.7109 1.7109v-2.9766-1.7422-0.35938c0-0.14062 0.003906-0.27734 0.011718-0.41797 0.007813-0.13281 0.023438-0.26953 0.039063-0.40234-0.050781 0.45312 0.007813 0.011718 0.023437-0.070313 0.042969-0.21484 0.10156-0.42578 0.16406-0.63281 0.039063-0.125 0.082031-0.24609 0.12891-0.36719 0.15234-0.41016-0.15234 0.33203 0.03125-0.066406 0.089844-0.19531 0.19531-0.37891 0.30469-0.5625 0.066406-0.10938 0.13672-0.21484 0.20703-0.32031 0.042969-0.066406 0.30859-0.40625 0.035156-0.0625 0.28906-0.36719 0.62891-0.69141 0.98828-0.98828-0.34766 0.28516 0.18359-0.11719 0.27344-0.17578 0.21484-0.14062 0.44141-0.25781 0.67188-0.37109 0.17188-0.078125 0.15625-0.074219-0.054688 0.015625 0.12109-0.050781 0.24219-0.09375 0.36328-0.13672 0.24609-0.085937 0.5-0.14844 0.75781-0.20703 0.085938-0.019531 0.17188-0.035156 0.26172-0.046875-0.44922 0.078125-0.007813 0.003906 0.078125-0.003906 0.19141-0.019532 0.38281-0.023438 0.57422-0.023438h1.4961c-0.40234-0.16797-0.80469-0.33203-1.207-0.5 1.5703 1.9609 3.1445 3.9219 4.7148 5.8828 0.53906 0.67188 1.8789 0.67578 2.418 0 1.5586-1.9609 3.1172-3.9219 4.6758-5.8828-0.40234 0.16797-0.80469 0.33203-1.207 0.5h1.5273c0.26953 0 0.53906 0.019532 0.80859 0.050782-0.45312-0.050782-0.011719 0.007812 0.070313 0.023437 0.12891 0.023437 0.25781 0.058594 0.38281 0.089844 0.25 0.066406 0.49609 0.15234 0.73828 0.25-0.41016-0.16016-0.011719 0.003906 0.0625 0.039062 0.11328 0.054688 0.22656 0.12109 0.33984 0.18359 0.22266 0.125 0.43359 0.26953 0.64062 0.42188-0.35156-0.25781-0.011718 0 0.050782 0.050781 0.097656 0.082031 0.1875 0.17188 0.28125 0.25781 0.18359 0.17578 0.35156 0.36719 0.51172 0.5625-0.27734-0.33594-0.007812-0.003906 0.035156 0.0625 0.074219 0.10547 0.14063 0.21484 0.20703 0.32031 0.13281 0.21875 0.25 0.44922 0.35938 0.67969-0.18359-0.39844-0.007813-0.007813 0.023437 0.070312 0.046875 0.12109 0.082032 0.24609 0.12109 0.37109 0.078125 0.25 0.12891 0.51172 0.17578 0.76953-0.078125-0.44922-0.003906-0.007812 0.003907 0.078125 0.007812 0.18359 0.011718 0.36328 0.011718 0.54688 0.007813 0.92969 0.76953 1.7109 1.7109 1.7109 0.92578 0 1.7188-0.77734 1.7109-1.7109-0.027343-2.6562-1.2773-5.043-3.3789-6.6445-0.93359-0.71094-2.0586-1.2031-3.207-1.4297-0.89844-0.17578-1.793-0.17187-2.7031-0.17187-0.58984 0-1.2812-0.015626-1.6914 0.5-0.054687 0.070312-0.10937 0.13672-0.16406 0.20703-0.33984 0.42578-0.67578 0.85156-1.0156 1.2734-0.9375 1.1797-1.875 2.3594-2.8125 3.5391-0.23047 0.28906-0.45703 0.57422-0.6875 0.86328h2.418c-1.4922-1.8594-2.9805-3.7188-4.4727-5.5781-0.42969-0.53906-0.96875-0.80469-1.6914-0.80469-0.74219 0-1.4922-0.03125-2.2305 0.066406-2.5977 0.34766-4.8555 1.7812-6.1992 4.0547-0.98047 1.6602-1.1055 3.4648-1.1055 5.332v3.8828c0 0.92969 0.77734 1.7109 1.7109 1.7109h13.152 12.371c0.92969 0 1.7109-0.77734 1.7109-1.7109v-5.0898c0-0.92969-0.77734-1.7109-1.7109-1.7109-0.9375 0-1.7148 0.77734-1.7148 1.7109z"/>
  <path d="m23.012 51.965c-0.003907 0.23438-0.015625 0.46875-0.035157 0.70312-0.039062 0.41797 0.0625-0.39453 0 0.027343-0.019531 0.12109-0.042968 0.24609-0.066406 0.36719-0.10547 0.54688-0.27344 1.082-0.46875 1.6016-0.027344 0.070313-0.19922 0.48047-0.027344 0.078126-0.050781 0.12109-0.10937 0.24219-0.16406 0.35937-0.11328 0.23828-0.23828 0.47266-0.37109 0.70313-0.12891 0.23047-0.27344 0.45312-0.42188 0.66797-0.074219 0.10938-0.14844 0.21484-0.22656 0.32031 0.26172-0.35938-0.082031 0.09375-0.13672 0.16016-0.16406 0.19531-0.33984 0.375-0.51953 0.55469-0.089844 0.089844-0.67969 0.57813-0.30859 0.29297-0.1875 0.14453-0.39062 0.27344-0.59766 0.39453-0.10156 0.058594-0.20312 0.11328-0.30859 0.16406-0.26953 0.13672 0.33594-0.11719-0.12109 0.050781-0.21484 0.078125-0.43359 0.12891-0.65625 0.17188 0.48828-0.09375 0.12109-0.015625 0.003907-0.007812-0.11328 0.007812-0.22656 0.007812-0.34375 0.003906-0.11328 0-0.22656-0.011719-0.33984-0.023437 0.5 0.050781 0.11719 0.007812 0.007812-0.015626-0.10938-0.023437-0.21875-0.058593-0.32812-0.089843-0.10156-0.03125-0.58203-0.24219-0.125-0.035157-0.21484-0.097656-0.41797-0.21484-0.61719-0.33594-0.10156-0.0625-0.19922-0.13281-0.29688-0.20312-0.33984-0.24219 0.28516 0.23438-0.039063-0.03125-0.42188-0.34766-0.79297-0.75781-1.1328-1.1836 0.26953 0.33594 0-0.011718-0.042969-0.070312-0.074219-0.10547-0.14844-0.21875-0.21875-0.32812-0.14453-0.22266-0.27734-0.44922-0.40234-0.68359-0.12891-0.23047-0.24219-0.47266-0.35547-0.71094-0.1875-0.40625 0.13281 0.33594-0.035156-0.078126-0.066406-0.16016-0.125-0.32812-0.17969-0.49219-0.16797-0.48047-0.28906-0.97656-0.38281-1.4766-0.015625-0.09375-0.070312-0.51562-0.007812-0.03125-0.015625-0.11719-0.023438-0.23828-0.03125-0.35547-0.023438-0.28906-0.019532-0.58203-0.003906-0.875 0.003906-0.082032 0.058593-0.53516-0.003907-0.078125 0.019531-0.13281 0.042969-0.26172 0.070313-0.39062 0.050781-0.25781 0.12891-0.50781 0.21094-0.75391 0.023438-0.074219 0.19141-0.48047 0.015625-0.074219 0.050782-0.11719 0.10938-0.23438 0.16797-0.34766 0.13281-0.26562 0.29297-0.51953 0.46484-0.76172 0.24609-0.35547-0.23047 0.27734 0.042969-0.058594 0.10547-0.13281 0.22266-0.25391 0.33984-0.375 0.089844-0.089844 0.17969-0.17969 0.27344-0.26562 0.066406-0.058594 0.50781-0.41016 0.14453-0.13672 0.23828-0.17969 0.49219-0.33594 0.75391-0.48047 0.11328-0.0625 0.22656-0.11719 0.34375-0.17188 0.17188-0.078124 0.15625-0.070312-0.054687 0.019532 0.082031-0.03125 0.16016-0.0625 0.24219-0.089844 0.28906-0.10156 0.58594-0.17578 0.88281-0.23438 0.082031-0.015625 0.52344-0.070313 0.070312-0.015625 0.17969-0.019531 0.35938-0.027344 0.53906-0.035156 0.13672-0.003906 0.27344 0 0.41016 0.003906 0.089844 0.003906 0.6875 0.066406 0.21484 0.003906 0.34766 0.046875 0.6875 0.13672 1.0234 0.23828 0.125 0.039062 0.24609 0.085937 0.36719 0.13281-0.42578-0.16406 0.09375 0.050781 0.17578 0.09375 0.26562 0.13281 0.51953 0.29297 0.76172 0.46484 0.35547 0.24609-0.27734-0.23047 0.058593 0.042968 0.13281 0.10547 0.25391 0.22266 0.375 0.33984 0.089844 0.089844 0.17969 0.17969 0.26563 0.27344 0.058593 0.066406 0.41016 0.50781 0.13672 0.14453 0.17969 0.23828 0.33594 0.49219 0.48047 0.75391 0.0625 0.11328 0.11719 0.22656 0.17188 0.34375 0.078125 0.17188 0.070312 0.15625-0.019531-0.054687 0.03125 0.082031 0.0625 0.16016 0.089843 0.24219 0.10156 0.28906 0.17578 0.58594 0.23438 0.88281 0.015624 0.085937 0.03125 0.17578 0.042968 0.26172-0.03125-0.23437-0.035156-0.25391-0.015625-0.054687 0.015625 0.17969 0.019531 0.36328 0.023438 0.54297 0.007812 0.92969 0.76953 1.7109 1.7109 1.7109 0.92578 0 1.7188-0.77734 1.7109-1.7109-0.027344-2.6836-1.3164-5-3.4336-6.5977-1.9961-1.5039-4.8398-1.8516-7.1836-1.0664-2.4727 0.82812-4.3438 2.7891-5.1641 5.2461-0.79688 2.3789-0.21094 4.9531 0.80469 7.1602 0.79297 1.7266 2.0625 3.2812 3.6602 4.3164 1.7539 1.1406 3.8789 1.2266 5.7617 0.38281 1.7031-0.76562 3.0273-2.293 3.9531-3.8789 0.97266-1.668 1.5859-3.6289 1.6016-5.5664 0.007812-0.92969-0.78516-1.7109-1.7109-1.7109-0.94141 0.007812-1.7031 0.78516-1.7109 1.7148z"/>
  <path d="m29.41 71.051v5.0898c0.57031-0.57031 1.1406-1.1406 1.7109-1.7109h-13.152-12.371c0.57031 0.57031 1.1406 1.1406 1.7109 1.7109v-2.9766-1.7422-0.35938c0-0.14062 0.003906-0.27734 0.011718-0.41797 0.007813-0.13281 0.023438-0.26953 0.039063-0.40234-0.050781 0.45312 0.007813 0.011718 0.023437-0.070313 0.042969-0.21484 0.10156-0.42578 0.16406-0.63281 0.039063-0.125 0.082031-0.24609 0.12891-0.36719 0.15234-0.41016-0.15234 0.33203 0.03125-0.066406 0.089844-0.19531 0.19531-0.37891 0.30469-0.5625 0.066406-0.10938 0.13672-0.21484 0.20703-0.32031 0.042969-0.066406 0.30859-0.40625 0.035156-0.0625 0.28906-0.36719 0.62891-0.69141 0.98828-0.98828-0.34766 0.28516 0.18359-0.11719 0.27734-0.17578 0.21484-0.14062 0.44141-0.25781 0.67188-0.37109 0.17188-0.078125 0.15625-0.074219-0.054687 0.015625 0.12109-0.050781 0.24219-0.09375 0.36328-0.13672 0.24609-0.085937 0.5-0.14844 0.75781-0.20703 0.085938-0.019531 0.17188-0.035156 0.26172-0.046875-0.44922 0.078125-0.007812 0.003906 0.078125-0.003906 0.19141-0.019532 0.38281-0.023438 0.57422-0.023438h1.4961c-0.40234-0.16797-0.80469-0.33203-1.207-0.5 1.5703 1.9609 3.1445 3.9219 4.7148 5.8828 0.53906 0.67188 1.8789 0.67578 2.418 0 1.5586-1.9609 3.1172-3.9219 4.6758-5.8828-0.40234 0.16797-0.80469 0.33203-1.207 0.5h1.5273c0.26953 0 0.53906 0.019532 0.80859 0.050782-0.45313-0.050782-0.011719 0.007812 0.070312 0.023437 0.12891 0.023437 0.25781 0.058594 0.38281 0.089844 0.25 0.066406 0.49609 0.15234 0.73828 0.25-0.41016-0.16016-0.011719 0.003906 0.0625 0.039062 0.11328 0.054688 0.22656 0.12109 0.33984 0.18359 0.22266 0.125 0.43359 0.26953 0.64062 0.42188-0.35156-0.25781-0.011718 0 0.050782 0.050781 0.097656 0.082031 0.1875 0.17188 0.28125 0.25781 0.18359 0.17578 0.35156 0.36719 0.51172 0.5625-0.27734-0.33594-0.007812-0.003906 0.035157 0.0625 0.074219 0.10547 0.14062 0.21484 0.20703 0.32031 0.13281 0.21875 0.25 0.44922 0.35938 0.67969-0.18359-0.39844-0.007813-0.007813 0.023437 0.070312 0.046876 0.12109 0.082032 0.24609 0.12109 0.37109 0.078125 0.25 0.12891 0.51172 0.17578 0.76953-0.078126-0.44922-0.003907-0.007812 0.003906 0.078125 0.003906 0.18359 0.007812 0.36328 0.007812 0.54688 0.007813 0.92969 0.76953 1.7109 1.7109 1.7109 0.92578 0 1.7188-0.77734 1.7109-1.7109-0.027343-2.6562-1.2773-5.043-3.3789-6.6445-0.93359-0.71094-2.0547-1.2031-3.207-1.4297-0.89844-0.17578-1.793-0.17187-2.7031-0.17187-0.58984 0-1.2812-0.015626-1.6914 0.5-0.054687 0.070312-0.10937 0.13672-0.16406 0.20703-0.33594 0.42578-0.67578 0.85156-1.0156 1.2734-0.9375 1.1797-1.875 2.3594-2.8125 3.5391-0.23047 0.28906-0.45703 0.57422-0.6875 0.86328h2.418c-1.4922-1.8594-2.9805-3.7188-4.4727-5.5781-0.42969-0.53906-0.96875-0.80469-1.6914-0.80469-0.74219 0-1.4922-0.03125-2.2305 0.066406-2.5977 0.34766-4.8555 1.7812-6.1992 4.0547-0.98047 1.6562-1.1055 3.4648-1.1055 5.3281v3.8828c0 0.92969 0.77734 1.7109 1.7109 1.7109h13.152 12.371c0.92969 0 1.7109-0.77734 1.7109-1.7109v-5.0898c0-0.92969-0.77734-1.7109-1.7109-1.7109-0.9375 0.003906-1.7148 0.78125-1.7148 1.7148z"/>
  <path d="m69.457 38.938c-0.003906 0.23828-0.015625 0.47266-0.042969 0.70703 0.050782-0.48438 0.003907-0.0625-0.011718 0.03125-0.023438 0.125-0.050782 0.24609-0.078125 0.37109-0.058594 0.25-0.13281 0.5-0.21484 0.74219-0.039063 0.125-0.085937 0.24609-0.13281 0.37109-0.070312 0.17578-0.0625 0.16406 0.019532-0.042968-0.035156 0.082031-0.070313 0.16016-0.10938 0.24219-0.22266 0.48047-0.49609 0.9375-0.80078 1.3711-0.25391 0.36328 0.22656-0.27344-0.050782 0.070312-0.082031 0.10156-0.16797 0.19531-0.25 0.29297-0.19531 0.21875-0.41016 0.41797-0.63281 0.60938-0.32031 0.27344 0.29688-0.21094-0.042969 0.027344-0.097656 0.070312-0.19922 0.12891-0.30078 0.19141-0.10156 0.0625-0.20703 0.11328-0.30859 0.16406-0.36328 0.17969 0.35938-0.13281-0.019531 0.003906-0.14062 0.050781-0.85547 0.17969-0.32031 0.11328-0.11328 0.015625-0.22656 0.015625-0.34375 0.019531-0.12109 0.003906-0.63281-0.070312-0.11328 0.011719-0.22656-0.035156-0.44531-0.10547-0.66016-0.18359 0.4375 0.16016 0.078125 0.027344-0.015625-0.015625-0.10547-0.054687-0.20703-0.11328-0.30859-0.17578s-0.19922-0.13281-0.29688-0.19922c0.36328 0.25781 0.03125 0.019532-0.035156-0.039062-0.22266-0.19141-0.42969-0.40625-0.625-0.625-0.085938-0.097656-0.16797-0.19531-0.24609-0.29688 0.26953 0.33594 0-0.015625-0.042969-0.074219-0.15234-0.21875-0.28906-0.44531-0.42188-0.67188-0.13281-0.23047-0.25-0.46875-0.35938-0.71094-0.1875-0.40625 0.13281 0.33594-0.03125-0.082032-0.0625-0.16406-0.12109-0.32812-0.17578-0.49609-0.082031-0.24219-0.14453-0.49219-0.20312-0.74219-0.027344-0.12109-0.050781-0.24609-0.070312-0.36719-0.074219-0.42188 0.039062 0.39062-0.003907-0.03125-0.027343-0.24219-0.03125-0.48047-0.027343-0.72266 0-0.13281 0.011718-0.26953 0.023437-0.40234-0.039063 0.46875 0.023437-0.10156 0.046875-0.19922 0.054688-0.25391 0.13672-0.5 0.22656-0.74219-0.15234 0.41016 0 0.015625 0.035157-0.058593 0.054687-0.11328 0.12109-0.22656 0.18359-0.33594s0.13672-0.21484 0.20703-0.32031c0.24219-0.35547-0.23438 0.27734 0.042968-0.054688 0.1875-0.22656 0.40234-0.43359 0.625-0.625 0.32422-0.28125-0.29687 0.20703 0.054688-0.042969 0.10156-0.074219 0.21094-0.14062 0.32031-0.20703 0.10938-0.066406 0.22266-0.125 0.33594-0.18359 0.074219-0.039062 0.46875-0.19922 0.058594-0.035156 0.24219-0.097656 0.49219-0.16797 0.74219-0.22656 0.12891-0.03125 0.25781-0.050782 0.38672-0.074219-0.46875 0.078125 0.11719 0.007812 0.21094 0.003906 0.13672-0.003906 0.27344 0 0.40625 0.003906 0.089843 0.003907 0.17969 0.011719 0.26562 0.019531-0.23437-0.035156-0.25391-0.039062-0.058593-0.007812 0.34375 0.054688 0.67578 0.15625 1 0.27734-0.41016-0.15234-0.015625 0 0.058593 0.035156 0.15234 0.074219 0.29688 0.16016 0.44141 0.25 0.078125 0.046875 0.52734 0.38281 0.16797 0.10156 0.13281 0.10547 0.25781 0.21875 0.37891 0.33594 0.089844 0.085938 0.17578 0.17969 0.26172 0.27344 0.054688 0.0625 0.10938 0.12891 0.16406 0.19141-0.13672-0.17969-0.14844-0.19531-0.039063-0.042969 0.19922 0.27734 0.35938 0.57812 0.5 0.88672-0.18359-0.40234-0.015624-0.007813 0.015626 0.070312 0.058593 0.16406 0.097656 0.33203 0.14062 0.5 0.023438 0.09375 0.097657 0.66797 0.046876 0.19922 0.019531 0.1875 0.023437 0.36719 0.027343 0.54688 0.011719 0.92969 0.76953 1.7109 1.7109 1.7109 0.92188 0 1.7188-0.77734 1.7109-1.7109-0.03125-2.6016-1.4688-5.0508-3.793-6.2578-2.3164-1.2031-5.2812-1.043-7.3867 0.53906-2.2344 1.6758-3.2109 4.2578-2.8164 7 0.32422 2.2539 1.5664 4.6406 3.3789 6.0547 1.0938 0.85156 2.3711 1.4375 3.7891 1.3633 1.4258-0.074219 2.6602-0.74609 3.7109-1.6797 1.9102-1.6953 3.0938-4.4844 3.1211-7.0234 0.007813-0.92969-0.78516-1.7109-1.7109-1.7109-0.94531 0.007813-1.707 0.78516-1.7148 1.7148z"/>
  <path d="m37.914 38.938c-0.003906 0.23828-0.015624 0.47266-0.042968 0.70703 0.050781-0.48438 0.003906-0.0625-0.011719 0.03125-0.023437 0.125-0.050781 0.24609-0.078125 0.37109-0.058594 0.25-0.13281 0.5-0.21484 0.74219-0.039062 0.125-0.085937 0.24609-0.13281 0.37109-0.070313 0.17578-0.0625 0.16406 0.019531-0.042968-0.035156 0.082031-0.070313 0.16016-0.10938 0.24219-0.22266 0.48047-0.49609 0.9375-0.80078 1.3711-0.25391 0.36328 0.22656-0.27344-0.050781 0.070312-0.082032 0.10156-0.16797 0.19531-0.25 0.29297-0.19531 0.21875-0.41016 0.41797-0.63281 0.60938-0.32031 0.27344 0.29688-0.21094-0.042969 0.027344-0.097656 0.070312-0.19922 0.12891-0.30078 0.19141s-0.20703 0.11328-0.30859 0.16406c-0.36328 0.17969 0.35938-0.13281-0.019531 0.003906-0.14062 0.050781-0.85547 0.17969-0.32031 0.11328-0.11328 0.015625-0.22656 0.015625-0.34375 0.019531-0.12109 0.003906-0.63281-0.070312-0.11328 0.011719-0.22656-0.035156-0.44531-0.10547-0.66016-0.18359 0.4375 0.16016 0.078125 0.027344-0.015625-0.015625-0.10547-0.054687-0.20703-0.11328-0.30859-0.17578-0.10156-0.0625-0.19922-0.13281-0.29688-0.19922 0.36328 0.25781 0.03125 0.019532-0.035156-0.039062-0.22266-0.19141-0.42969-0.40625-0.625-0.625-0.085938-0.097656-0.16797-0.19531-0.24609-0.29688 0.26953 0.33594 0-0.015625-0.042968-0.074219-0.15234-0.21875-0.28906-0.44531-0.42188-0.67188-0.13281-0.23047-0.25-0.46875-0.35937-0.71094-0.1875-0.40625 0.13281 0.33594-0.03125-0.082032-0.0625-0.16406-0.12109-0.32812-0.17578-0.49609-0.082031-0.24609-0.14453-0.49219-0.20312-0.74219-0.027343-0.12109-0.050781-0.24609-0.074219-0.36719-0.074218-0.42188 0.039063 0.39062-0.003906-0.03125-0.027344-0.24219-0.03125-0.48047-0.027344-0.72266 0-0.13281 0.011719-0.26953 0.023438-0.40234-0.039062 0.46875 0.023438-0.10156 0.046875-0.19922 0.054687-0.25391 0.13672-0.5 0.22656-0.74219-0.15234 0.41016 0 0.015625 0.035156-0.058593 0.054687-0.11328 0.12109-0.22656 0.18359-0.33594s0.13672-0.21484 0.20703-0.32031c0.24219-0.35547-0.23438 0.27734 0.042969-0.054688 0.1875-0.22656 0.40234-0.43359 0.625-0.625 0.32422-0.28125-0.29297 0.20703 0.054687-0.042969 0.10156-0.074219 0.21094-0.14062 0.32031-0.20703 0.10937-0.066406 0.22266-0.125 0.33594-0.18359 0.074219-0.039062 0.46875-0.19922 0.058594-0.035156 0.24219-0.097656 0.49219-0.16797 0.74219-0.22656 0.12891-0.03125 0.25781-0.050782 0.38672-0.074219-0.46875 0.078125 0.11719 0.007812 0.21094 0.003906 0.13672-0.003906 0.27344 0 0.40625 0.003906 0.089844 0.003907 0.17969 0.011719 0.26563 0.019531-0.23438-0.035156-0.25391-0.039062-0.058594-0.007812 0.34375 0.054688 0.67578 0.15625 1 0.27734-0.41016-0.15234-0.015625 0 0.058594 0.035156 0.15234 0.074219 0.29687 0.16016 0.44141 0.25 0.078125 0.046875 0.52734 0.38281 0.16797 0.10156 0.13281 0.10547 0.25781 0.21875 0.37891 0.33594 0.089843 0.085938 0.17578 0.17969 0.26172 0.27344 0.054687 0.0625 0.10937 0.12891 0.16406 0.19141-0.13672-0.17969-0.14844-0.19531-0.039062-0.042969 0.19922 0.27734 0.35937 0.57812 0.5 0.88672-0.18359-0.40234-0.011719-0.007813 0.015624 0.070312 0.058594 0.16406 0.097657 0.33203 0.14063 0.5 0.023437 0.09375 0.097656 0.66797 0.046874 0.19922 0.023438 0.1875 0.027344 0.36719 0.03125 0.54688 0.011719 0.92969 0.76953 1.7109 1.7109 1.7109 0.92188 0 1.7188-0.77734 1.7109-1.7109-0.03125-2.6016-1.4688-5.0508-3.793-6.2578-2.3164-1.2031-5.2812-1.043-7.3867 0.53906-2.2344 1.6758-3.2109 4.2578-2.8164 7 0.32422 2.2539 1.5664 4.6406 3.3789 6.0547 1.0938 0.85156 2.3711 1.4375 3.7891 1.3633 1.4258-0.074219 2.6602-0.74609 3.7109-1.6797 1.9102-1.6953 3.0938-4.4844 3.1211-7.0234 0.007812-0.92969-0.78516-1.7109-1.7109-1.7109-0.94531 0.007813-1.707 0.78516-1.7148 1.7148z"/>
  <path d="m52.855 28.332c0 0.11719-0.003907 0.23047-0.011719 0.34766-0.007812 0.097656-0.066406 0.50391 0.007812 0.023437-0.035156 0.24609-0.09375 0.49219-0.16016 0.73438-0.066406 0.25-0.15234 0.49219-0.24609 0.73438 0.15625-0.40625-0.003906 0.003906-0.035156 0.074219-0.074218 0.16016-0.15625 0.3125-0.24219 0.46875-0.125 0.23047-0.26953 0.44922-0.42188 0.66406-0.25391 0.35938 0.22656-0.27344-0.046875 0.0625-0.082031 0.097656-0.16797 0.19141-0.25391 0.28125-0.085937 0.089844-0.17578 0.17578-0.26562 0.26172-0.0625 0.058594-0.39063 0.31641-0.03125 0.042969-0.21875 0.16406-0.45703 0.30078-0.70703 0.41797 0.42188-0.19922 0.085938-0.046874-0.019531-0.015624-0.10938 0.03125-0.21875 0.054687-0.32812 0.074218 0.48047-0.089844 0.125-0.027344 0.003906-0.023437-0.10938 0.003906-0.49609-0.050781 0.003906 0.023437-0.11328-0.015625-0.22266-0.046875-0.32812-0.074218-0.097657-0.027344-0.45703-0.17188-0.019532 0.015624-0.25-0.10937-0.48438-0.25781-0.70703-0.41797 0.36719 0.26172 0.039063 0.019531-0.03125-0.042969-0.09375-0.082031-0.17969-0.17188-0.26562-0.26172-0.089844-0.089844-0.17188-0.1875-0.25391-0.28125-0.28516-0.32812 0.21094 0.29297-0.046875-0.0625-0.15625-0.21094-0.28906-0.4375-0.42188-0.66406-0.066406-0.11328-0.125-0.23047-0.18359-0.34766-0.039062-0.078126-0.26562-0.61328-0.09375-0.19141-0.19141-0.47266-0.32422-0.96484-0.40625-1.4688 0.082031 0.47656 0.015625 0.078125 0.007812-0.023437-0.007812-0.11719-0.011718-0.23047-0.011718-0.34766 0-0.13672 0.007812-0.27344 0.019531-0.40625-0.035156 0.46094 0.023437-0.10156 0.046875-0.19922 0.027344-0.12891 0.070312-0.25 0.10938-0.375 0.13281-0.41797-0.16016 0.32422 0.023437-0.070313 0.10547-0.23438 0.24219-0.44922 0.38672-0.66016-0.24219 0.35156-0.007812 0.011719 0.050781-0.050781 0.082032-0.097657 0.17578-0.18359 0.26563-0.27344 0.089843-0.089843 0.19141-0.16797 0.28906-0.25-0.34766 0.28516 0.10156-0.046875 0.17969-0.09375 0.10937-0.066406 0.22656-0.125 0.33984-0.17969 0.39062-0.19141-0.34375 0.125 0.070313-0.023438 0.24609-0.089844 0.50781-0.14453 0.76562-0.1875-0.44531 0.074219-0.003907 0.015625 0.082031 0.011719 0.13672-0.007813 0.27344 0 0.41016 0.007813 0.45312 0.019531-0.36719-0.070313 0.078125 0.003906 0.17188 0.027344 0.34375 0.074218 0.51172 0.125 0.074219 0.023437 0.48438 0.17969 0.078125 0.007812 0.11719 0.050782 0.23047 0.10938 0.34375 0.17188 0.11328 0.058594 0.22266 0.12891 0.32812 0.19922 0.36328 0.23438-0.26953-0.23438 0.0625 0.039062 0.19531 0.16016 0.37109 0.34766 0.53906 0.53906 0.28125 0.32422-0.20703-0.29297 0.039063 0.0625 0.097656 0.14062 0.17969 0.28906 0.25781 0.44141 0.039062 0.074219 0.19531 0.46875 0.035156 0.0625 0.0625 0.16406 0.10938 0.33203 0.15234 0.5 0.03125 0.12891 0.054687 0.25781 0.078124 0.39062-0.09375-0.48047-0.03125 0.10547-0.027343 0.20312 0.015625 0.92969 0.76562 1.7109 1.7109 1.7109 0.92188 0 1.7227-0.77734 1.7109-1.7109-0.042969-2.7773-1.8711-5.1836-4.5391-5.9609-2.6797-0.77734-5.5625 0.5-6.9805 2.8398-1.3828 2.2812-0.88672 5.1289 0.38281 7.3359 1.2539 2.1875 3.6914 3.9375 6.2969 3.1328 2.9531-0.91016 4.8008-4.4141 4.8398-7.3516 0.011718-0.93359-0.78516-1.7109-1.7109-1.7109-0.94141 0.003906-1.6992 0.78125-1.7109 1.7148z"/>
 </g>
</svg>
